{
    "openapi": "3.0.0",
    "info": {
        "title": "Users",
        "description": "Example API for user information",
        "contact": {
            "email": "example@cern.ch"
        },
        "version": "1.0.0"
    },
    "paths": {
        "/users": {
            "get": {
                "tags": [
                    "All",
                    "Users"
                ],
                "summary": "Get all users.",
                "operationId": "getUsers",
                "responses": {
                    "200": {
                        "description": "Data",
                        "content": {
                            "application/json": {}
                        }
                    }
                }
            },
            "post": {
                "tags": [
                    "All",
                    "User"
                ],
                "summary": "Create new user",
                "operationId": "createUser",
                "parameters": [
                    {
                        "name": "User",
                        "in": "query",
                        "description": "Description of new user",
                        "required": true,
                        "schema": {
                            "properties": {
                                "USERNAME": {
                                    "type": "string"
                                },
                                "EMAIL": {
                                    "type": "string"
                                }
                            },
                            "type": "object"
                        }
                    }
                ],
                "responses": {
                    "200": {
                        "description": "User Created",
                        "content": {
                            "application/json": {}
                        }
                    }
                }
            }
        },
        "/users/{id}": {
            "get": {
                "tags": [
                    "All",
                    "Users"
                ],
                "summary": "Get specific user.",
                "operationId": "getUser",
                "parameters": [
                    {
                        "name": "id",
                        "in": "path",
                        "required": true,
                        "schema": {
                            "type": "string"
                        }
                    }
                ],
                "responses": {
                    "200": {
                        "description": "Data",
                        "content": {
                            "application/json": {}
                        }
                    }
                }
            },
            "put": {
                "tags": [
                    "All",
                    "User"
                ],
                "summary": "Update user.",
                "operationId": "updateUser",
                "parameters": [
                    {
                        "name": "id",
                        "in": "path",
                        "required": true,
                        "schema": {
                            "description": "The unique identifier of a request",
                            "type": "integer",
                            "format": "int64"
                        }
                    }
                ],
                "responses": {
                    "204": {
                        "description": "Successfully updated user."
                    },
                    "400": {
                        "description": "Invalid id input"
                    },
                    "404": {
                        "description": "User not found"
                    }
                }
            },
            "delete": {
                "tags": [
                    "All",
                    "Requests"
                ],
                "summary": "Delete user.",
                "operationId": "deleteUser",
                "parameters": [
                    {
                        "name": "id",
                        "in": "path",
                        "required": true,
                        "schema": {
                            "description": "The unique identifier of a user",
                            "type": "integer",
                            "format": "int64"
                        }
                    }
                ],
                "responses": {
                    "204": {
                        "description": "Successfully deleted user."
                    },
                    "400": {
                        "description": "Invalid id input"
                    },
                    "404": {
                        "description": "User not found"
                    }
                }
            }
        }
    }
}